ECE532_Project/RobotFPGA/microblaze/.Xil/Vivado-11092-BA3155WS24/hw_ila_data_1/zip_work/waveform.vcd
$date
        2024-Feb-28 16:12:24
$end
$version
        Vivado v2018.3.1 (64-bit)
$end
$timescale
        1ps
$end
$scope module dut $end
$var reg 1 " microblaze_i/rst_clk_wiz_1_100M_peripheral_aresetn $end
$var reg 1 # microblaze_i/audio_axi_v1_0_0_PDM_clk $end
$var reg 1 $ microblaze_i/audio_axi_v1_0_0_debug_done $end
$var reg 1 % microblaze_i/PDM_data_0_1 $end
$var reg 8 & microblaze_i/audio_axi_v1_0_0_debug_value [7:0] $end
$var reg 1 . microblaze_i/audio_axi_v1_0_0_LR_sel $end
$var reg 1 / _TRIGGER $end
$var reg 1 0 _WINDOW $end
$var reg 1 1 _GAP $end
$upscope $end
$enddefinitions $end
#0
$dumpvars
1"
0#
0$
1%
b10000011 &
0.
0/
10
01
$end
#7
1#
#26
0#
#30
0%
#45
1#
#64
0#
#68
1%
#83
1#
#102
0#
#106
0%
#121
1#
#140
0#
#144
1%
#159
1#
#178
0#
#182
0%
#197
1#
#216
0#
#220
1%
#235
1#
#254
0#
#273
1#
#292
0#
#296
0%
#311
1#
#330
0#
#349
1#
#368
0#
#372
1%
#387
1#
#406
0#
#425
1#
#444
0#
#448
0%
#463
1#
#482
0#
#501
1#
#512
1/
#520
0#
#524
1%
#539
1#
#558
0#
#577
1#
#596
0#
#600
0%
#615
1#
#634
0#
#653
1#
#672
0#
#676
1%
#691
1#
#710
0#
#729
1#
#748
0#
#752
0%
#767
1#
#786
0#
#790
1%
#805
1#
#824
0#
#828
0%
#843
1#
#862
0#
#866
1%
#881
1#
#900
0#
#904
0%
#919
1#
#938
0#
#942
1%
#957
1#
#976
0#
#980
0%
#995
1#
#1014
0#
#1018
1%
